level,bonus,esperanto,português,english,español
0,0,,saúdavel,healthy,saludable
1,0,,levemente ferido,slightly wounded,levemente herido
2,-1,,ferido,wounded,herido
3,-2,,gravemente ferido,severely wounded,gravemente herido
4,-8000,,incapacitado,incapacitated,incapacitado
5,-8000,,morto,dead,muerto
