level,required damage,esperanto,português,english,español
0,-1,,na,na,na
1,0,,arranhão,scratch,arrañazo
2,2,,leve,light,menor
3,5,,grave,severe,grave
4,9,,incapacitante,crippling,incapacitante
5,13,,fatal,fatal,fatal
